…
_Place Task Background Here_

## Data Wrangling


```r
means <- mort2 %>% 
  group_by(continent, year) %>% 
  summarise(avg_mort = mean(child_mort))

means
```

```
## # A tibble: 95 x 3
## # Groups:   continent [5]
##    continent  year avg_mort
##    <chr>     <int>    <dbl>
##  1 Africa     1995     138.
##  2 Africa     1996     135.
##  3 Africa     1997     133.
##  4 Africa     1998     133.
##  5 Africa     1999     129.
##  6 Africa     2000     126.
##  7 Africa     2001     122.
##  8 Africa     2002     118.
##  9 Africa     2003     114.
## 10 Africa     2004     109.
## # ... with 85 more rows
```
…
